<?xml version="1.0" encoding="iso-8859-1"?>
<!-- Generator: Adobe Illustrator 19.0.0, SVG Export Plug-In . SVG Version: 6.00 Build 0)  -->
<svg version="1.1" id="Layer_1" xmlns="http://www.w3.org/2000/svg" xmlns:xlink="http://www.w3.org/1999/xlink" x="0px" y="0px"
	 viewBox="0 0 512 512" style="enable-background:new 0 0 512 512;" xml:space="preserve">
<circle style="fill:#43D3E8;" cx="256.001" cy="239.667" r="145.651"/>
<circle style="fill:#FFFFFF;" cx="256.001" cy="239.667" r="41.864"/>
<g>
	<path style="fill:#242D3C;" d="M292.003,462.922l-12.849-13.23c16.274-15.8,30.607-46.572,40.351-86.641
		c5.647-23.099,9.613-48.445,11.789-75.336c1.275-15.526,1.923-31.688,1.923-48.041c0-16.356-0.648-32.512-1.923-48.031
		c-2.179-26.903-6.141-52.244-11.789-75.333c-14.472-59.464-39.398-97.876-63.498-97.876c-24.466,0-48.806,37.504-63.539,97.874
		c-5.66,23.158-9.613,48.497-11.75,75.313c-1.277,15.542-1.925,31.698-1.925,48.054c0,16.351,0.648,32.512,1.925,48.026
		c2.135,26.839,6.09,52.186,11.75,75.338c5.384,22.044,12.07,41.147,19.866,56.778l-16.492,8.23
		c-8.412-16.855-15.572-37.251-21.284-60.628c-5.893-24.113-10.002-50.429-12.216-78.231c-1.318-15.992-1.984-32.658-1.984-49.513
		s0.666-33.528,1.984-49.541c2.214-27.776,6.323-54.09,12.216-78.2C191.917,40.801,221.605,0,256.009,0
		c34.419,0,64.095,40.801,81.411,111.941c5.875,24.031,9.994,50.342,12.25,78.205c1.318,16.003,1.987,32.676,1.987,49.531
		s-0.671,33.521-1.987,49.539c-2.255,27.853-6.374,54.167-12.25,78.205C326.716,411.438,311.008,444.465,292.003,462.922z"/>
	<path style="fill:#242D3C;" d="M399.981,386.391c-20.908,0-45.885-4.078-74.099-12.308c-23.613-6.881-48.451-16.474-73.825-28.511
		c-14.6-6.925-29.363-14.679-43.873-23.06c-14.469-8.358-28.562-17.267-41.889-26.47c-23.107-15.974-43.835-32.696-61.606-49.708
		c-32.847-31.401-53.604-61.542-60.019-87.163l17.889-4.48c5.484,21.924,24.97,49.736,54.871,78.321
		c17.075,16.34,37.043,32.443,59.346,47.864c12.915,8.922,26.588,17.556,40.627,25.674c14.083,8.128,28.401,15.652,42.557,22.364
		c24.492,11.62,48.41,20.859,71.086,27.466c59.656,17.413,104.315,15.081,116.541-6.088c12.06-20.869-8.742-61.676-52.997-103.949
		c-17.226-16.484-37.189-32.589-59.336-47.864c-12.972-8.952-26.639-17.587-40.64-25.672c-13.514-7.811-27.287-15.073-40.957-21.609
		l-1.636-0.76c-24.502-11.62-48.415-20.864-71.084-27.464c-21.801-6.359-41.692-10.127-59.123-11.195l1.132-18.401
		c18.796,1.157,40.046,5.156,63.153,11.894c23.017,6.705,47.212,15.995,71.941,27.62h0.005l1.917,0.891
		c14.643,6.943,29.402,14.702,43.878,23.063c14.421,8.325,28.516,17.234,41.884,26.46c22.95,15.828,43.681,32.556,61.606,49.713
		c52.954,50.578,73.441,96.691,56.215,126.502C453.252,377.334,431.144,386.391,399.981,386.391z"/>
	<path style="fill:#242D3C;" d="M111.999,386.391c-31.165,0-53.274-9.052-63.567-26.87c-17.216-29.796,3.292-75.907,56.261-126.508
		c17.774-17.011,38.5-33.736,61.596-49.702c13.373-9.231,27.469-18.14,41.892-26.47c14.577-8.422,29.33-16.179,43.837-23.06
		l1.923-0.891c24.717-11.625,48.914-20.91,71.944-27.62c43.569-12.71,80.031-15.598,105.441-8.351l-5.059,17.731
		c-21.75-6.205-55.567-3.249-95.222,8.32c-22.676,6.605-46.595,15.844-71.084,27.464l-1.907,0.891
		c-13.46,6.446-27.126,13.665-40.653,21.476c-13.998,8.087-27.671,16.722-40.635,25.674c-22.29,15.414-42.253,31.516-59.336,47.862
		c-44.278,42.296-65.091,83.103-53.036,103.956c12.221,21.169,56.881,23.501,116.536,6.088c22.74-6.62,46.669-15.862,71.122-27.466
		c14.167-6.715,28.483-14.241,42.56-22.369c14.039-8.113,27.709-16.747,40.63-25.669c22.162-15.286,42.127-31.386,59.341-47.857
		c16.351-15.606,29.555-30.927,39.25-45.558l15.368,10.184c-10.452,15.775-24.545,32.164-41.882,48.701
		c-17.91,17.142-38.638,33.866-61.604,49.705c-13.32,9.196-27.41,18.104-41.876,26.46c-14.508,8.376-29.268,16.138-43.878,23.063
		c-25.339,12.024-50.194,21.612-73.866,28.511C157.876,382.313,132.901,386.391,111.999,386.391z"/>
</g>
<path id="SVGCleanerId_0" style="fill:#242D3C;" d="M455.579,166.308c-23.084,0-41.859-18.783-41.859-41.866
	c0-23.086,18.775-41.866,41.859-41.866c23.091,0,41.874,18.783,41.874,41.866S478.668,166.308,455.579,166.308z M455.579,101.012
	c-12.913,0-23.419,10.511-23.419,23.432s10.506,23.427,23.419,23.427c12.923,0,23.437-10.506,23.437-23.427
	S468.502,101.012,455.579,101.012z"/>
<g>
	<path id="SVGCleanerId_0_1_" style="fill:#242D3C;" d="M455.579,166.308c-23.084,0-41.859-18.783-41.859-41.866
		c0-23.086,18.775-41.866,41.859-41.866c23.091,0,41.874,18.783,41.874,41.866S478.668,166.308,455.579,166.308z M455.579,101.012
		c-12.913,0-23.419,10.511-23.419,23.432s10.506,23.427,23.419,23.427c12.923,0,23.437-10.506,23.437-23.427
		S468.502,101.012,455.579,101.012z"/>
</g>
<g>
	<path style="fill:#242D3C;" d="M56.406,166.313c-23.078,0-41.859-18.783-41.859-41.869c0-23.081,18.778-41.864,41.859-41.864
		c23.089,0,41.874,18.783,41.874,41.864C98.282,147.53,79.494,166.313,56.406,166.313z M56.406,101.015
		c-12.915,0-23.419,10.506-23.419,23.427s10.504,23.432,23.419,23.432c12.923,0,23.439-10.511,23.439-23.432
		S69.331,101.015,56.406,101.015z"/>
	<path style="fill:#242D3C;" d="M255.994,512c-23.081,0-41.856-18.78-41.856-41.866s18.775-41.866,41.856-41.866
		c23.091,0,41.874,18.783,41.874,41.866C297.868,493.217,279.085,512,255.994,512z M255.994,446.705
		c-12.913,0-23.419,10.509-23.419,23.429c0,12.918,10.506,23.427,23.419,23.427c12.925,0,23.437-10.509,23.437-23.427
		C279.43,457.216,268.919,446.705,255.994,446.705z"/>
</g>
<g>
</g>
<g>
</g>
<g>
</g>
<g>
</g>
<g>
</g>
<g>
</g>
<g>
</g>
<g>
</g>
<g>
</g>
<g>
</g>
<g>
</g>
<g>
</g>
<g>
</g>
<g>
</g>
<g>
</g>
</svg>
